{
  "content": [
    {
      "itemId": "329299",
      "name": "Quarkus T-shirt",
      "desc": "Our T-Shirt is an everyday essential! This short-sleeve heavyweight T-shirt is comfortable, economical and made to last. Designed with a traditional fit that runs true to size, he’ll show off his personality, humor and interests with an easy, relaxed style.",
      "price": 10,
      "quantity": 736
    },
    {
      "itemId": "329199",
      "name": "Pronounced Kubernetes",
      "desc": "Our Men's Value T-Shirt is an everyday essential! This short-sleeve heavyweight T-shirt is comfortable, economical and made to last. Designed with a traditional fit that runs true to size, he’ll show off his personality, humor and interests with an easy, relaxed style.",
      "price": 9,
      "quantity": 512
    },
    {
      "itemId": "165613",
      "name": "Knit socks",
      "desc": "Lorem ipsum dolor sit amet, consectetur adipiscing elit. Ut urna leo, cursus a fringilla et, aliquam at tellus. Praesent est nulla, mattis in auctor vitae, commodo sed eros. Etiam volutpat a felis vel elementum. Duis ut vestibulum orci, ut hendrerit felis. Nulla nunc lectus, luctus ut tortor a, sollicitudin gravida dolor. Integer euismod, velit non tempor mattis, odio neque ornare neque, nec sollicitudin elit massa nec ante.",
      "price": 4.15,
      "quantity": 256
    },
    {
      "itemId": "165614",
      "name": "Quarkus H2Go water bottle",
      "desc": "Copper vacuum insulated sport bottle with 650 ml capacity. Durable, double wall stainless steel vacuum construction with copper insulation, which allows your beverage to stay cold for 48 hours and at least 12 hours for hot beverages. The construction also prevents condensation on the outside of the bottle. Material: Stainless Steel. Colour: Black Height:27,20 cm Diameter:7,20 cm Weight:380 gram",
      "price": 14.45,
      "quantity": 54
    },
    {
      "itemId": "165954",
      "name": "Patagonia Refugio pack 28L",
      "desc": "Lorem ipsum dolor sit amet, consectetur adipiscing elit. Ut urna leo, cursus a fringilla et, aliquam at tellus. Praesent est nulla, mattis in auctor vitae, commodo sed eros. Etiam volutpat a felis vel elementum. Duis ut vestibulum orci, ut hendrerit felis. Nulla nunc lectus, luctus ut tortor a, sollicitudin gravida dolor. Integer euismod, velit non tempor mattis, odio neque ornare neque, nec sollicitudin elit massa nec ante.",
      "price": 6,
      "quantity": 87
    },
    {
      "itemId": "RHNAM-179",
      "name": "Patagonia Refugio pack 28L",
      "desc": "Lorem ipsum dolor sit amet, consectetur adipiscing elit. Ut urna leo, cursus a fringilla et, aliquam at tellus. Praesent est nulla, mattis in auctor vitae, commodo sed eros. Etiam volutpat a felis vel elementum. Duis ut vestibulum orci, ut hendrerit felis. Nulla nunc lectus, luctus ut tortor a, sollicitudin gravida dolor. Integer euismod, velit non tempor mattis, odio neque ornare neque, nec sollicitudin elit massa nec ante.",
      "price": 6,
      "quantity": 87
    },
    {
      "itemId": "RHNAM-094-WHT",
      "name": "Patagonia Refugio pack 28L",
      "desc": "Lorem ipsum dolor sit amet, consectetur adipiscing elit. Ut urna leo, cursus a fringilla et, aliquam at tellus. Praesent est nulla, mattis in auctor vitae, commodo sed eros. Etiam volutpat a felis vel elementum. Duis ut vestibulum orci, ut hendrerit felis. Nulla nunc lectus, luctus ut tortor a, sollicitudin gravida dolor. Integer euismod, velit non tempor mattis, odio neque ornare neque, nec sollicitudin elit massa nec ante.",
      "price": 6,
      "quantity": 87
    },
    {
      "itemId": "RHNAM-179",
      "name": "Patagonia Refugio pack 28L",
      "desc": "Lorem ipsum dolor sit amet, consectetur adipiscing elit. Ut urna leo, cursus a fringilla et, aliquam at tellus. Praesent est nulla, mattis in auctor vitae, commodo sed eros. Etiam volutpat a felis vel elementum. Duis ut vestibulum orci, ut hendrerit felis. Nulla nunc lectus, luctus ut tortor a, sollicitudin gravida dolor. Integer euismod, velit non tempor mattis, odio neque ornare neque, nec sollicitudin elit massa nec ante.",
      "price": 6,
      "quantity": 87
    }
  ],
  "pageable": {
    "sort": {
      "sorted": false,
      "unsorted": true,
      "empty": true
    },
    "offset": 0,
    "pageNumber": 0,
    "pageSize": 5,
    "paged": true,
    "unpaged": false
  },
  "totalPages": 9,
  "totalElements": 41,
  "last": false,
  "size": 5,
  "number": 0,
  "sort": {
    "sorted": false,
    "unsorted": true,
    "empty": true
  },
  "numberOfElements": 5,
  "first": true,
  "empty": false
}